{
    "colorBack": "#808080",
    "colorLine": "#808080",
    "colorGauge": "#404040",

    "colorValue": "#FFFFFF",
    "colorGaugeValue": "#FFFFFF",

    "colorLabel": "#FFFFFF",

    "shadowColor": "#2B2A4C",
    "shadowOffset": 1
}