{
    "ANIMATED_BACKGROUND": "cyberpunk/background.gif",
    "BACKGROUND": "cyberpunk/background.png",
    "BITMAPS": {
        "GAUGE_TYPE_A_BITMAP": "cyberpunk/GAUGE_TYPE_A_BITMAP.png",
        "GAUGE_TYPE_A_BITMAP_SHADOW": "cyberpunk/GAUGE_TYPE_A_BITMAP_SHADOW.png",
        "GAUGE_TYPE_B_BITMAP": "cyberpunk/GAUGE_TYPE_B_BITMAP.png",
        "GAUGE_TYPE_B_BITMAP_TOP": "cyberpunk/GAUGE_TYPE_B_BITMAP_TOP.png",
        "GAUGE_TYPE_C_BITMAP": "cyberpunk/GAUGE_TYPE_C_BITMAP.png",
        "GAUGE_TYPE_C_BITMAP_SHADOW": "cyberpunk/GAUGE_TYPE_C_BITMAP_SHADOW.png",
        "GAUGE_TYPE_D_BITMAP": "cyberpunk/GAUGE_TYPE_D_BITMAP.png",
        "GAUGE_TYPE_D_BITMAP_RIGHT": "cyberpunk/GAUGE_TYPE_D_BITMAP_RIGHT.png",
        "FPS_BACKGROUND_BITMAP": "cyberpunk/BACKGROUND_FPS.png"
    },
    "FONTS": {
        "default": {"file":"GlitchGoblin-2O87v.ttf", "size": 38},
        "defaultLabel": {"file":"GlitchGoblin-2O87v.ttf", "size": 38},
        "smallGlitchGoblin": {"file":"GlitchGoblin-2O87v.ttf", "size": 20},
        "mediumGlitchGoblin": {"file":"GlitchGoblin-2O87v.ttf", "size": 24},
        "LargeGlitchGoblin": {"file":"GlitchGoblin-2O87v.ttf", "size": 32},
        "fpsGlitchGoblin": {"file":"GlitchGoblin-2O87v.ttf", "size": 64}
    },
    "TEXT": {
        "GPU": {"value": "GPU", "x":136, "y":210, "size":24, "color":"#f4ed00ff", "font":"default", "xShadow":2, "yShadow":2, "colorShadow":"#200c0080"},
        "D3D": {"value": "D3D", "x":360, "y":210, "size":24, "color":"#f4ed00ff", "font":"default", "xShadow":2, "yShadow":2, "colorShadow":"#200c0080"},
        "CPU": {"value": "CPU", "x":139, "y":434, "size":24, "color":"#f4ed00ff", "font":"default", "xShadow":2, "yShadow":2, "colorShadow":"#200c0080"},
        "TEMP CORE": {"value": "CORE", "x":485, "y":42, "size":24, "color":"#f4ed00ff", "font":"smallGlitchGoblin", "xShadow":2, "yShadow":2, "colorShadow":"#200c0080"},
        "TEMP  RAM": {"value": "RAM", "x":546, "y":42, "size":24, "color":"#f4ed00ff", "font":"smallGlitchGoblin", "xShadow":2, "yShadow":2, "colorShadow":"#200c0080"},
        "TEMP  GPU": {"value": "GPU", "x":606, "y":42, "size":24, "color":"#f4ed00ff", "font":"smallGlitchGoblin", "xShadow":2, "yShadow":2, "colorShadow":"#200c0080"},
        "FREQ GPU": {"value": "GPU", "x":664, "y":98, "size":24, "color":"#f4ed00ff", "font":"mediumGlitchGoblin", "xShadow":2, "yShadow":2, "colorShadow":"#200c0080"},
        "FREQ RAM": {"value": "RAM", "x":664, "y":190, "size":24, "color":"#f4ed00ff", "font":"mediumGlitchGoblin", "xShadow":2, "yShadow":2, "colorShadow":"#200c0080"},
        "CORE LOAD": {"value": "CORES LOAD", "x":419, "y":291, "size":24, "color":"#f4ed00ff", "font":"mediumGlitchGoblin", "xShadow":2, "yShadow":2, "colorShadow":"#200c0080"},
        "RAM": {"value": "RAM", "x":619, "y":305, "size":24, "color":"#f4ed00ff", "font":"mediumGlitchGoblin", "xShadow":2, "yShadow":2, "colorShadow":"#200c0080"},
        "VRAM": {"value": "VRAM", "x":619, "y":400, "size":24, "color":"#f4ed00ff", "font":"mediumGlitchGoblin", "xShadow":2, "yShadow":2, "colorShadow":"#200c0080"}
    },
    "LABELS":{
        "GPUName": {"x":20, "y":4, "size":38, "color":"#ff9a00ff", "font":"default"},
        "CPUName": {"x":24, "y":230, "size":38, "color":"#ff9a00ff", "font":"default"}
    },
    "LABELS_SHADOW": {
        "GPUName": {"offsetX":2, "offsetY":4, "color":"#200c0080"},
        "CPUName": {"offsetX":2, "offsetY":4, "color":"#200c0080"}
    },
    "GAUGE_TYPE_A": {
        "GPU Core":{ "x":138, "y":149, "width":130, "height":130, "minGraph":0, "maxGraph":270, "realValMin":0, "realValMax":100, "value":0, "bitmap":"GAUGE_TYPE_A_BITMAP"},
        "D3D 3D":{ "x":358, "y":149, "width":130, "height":130, "minGraph":0, "maxGraph":270, "realValMin":0, "realValMax":100, "value":0, "bitmap":"GAUGE_TYPE_A_BITMAP"},
        "CPU Total":{ "x":137, "y":369, "width":130, "height":130, "minGraph":0, "maxGraph":270, "realValMin":0, "realValMax":100, "value":0, "bitmap":"GAUGE_TYPE_A_BITMAP"}
    }, 
    "GAUGE_TYPE_A_SHADOW": {
        "GPU Core":{ "offsetX":1, "offsetY":2, "bitmap":"GAUGE_TYPE_A_BITMAP_SHADOW" },
        "D3D 3D":{ "offsetX":1, "offsetY":2, "bitmap":"GAUGE_TYPE_A_BITMAP_SHADOW" },
        "CPU Total":{ "offsetX":1, "offsetY":2, "bitmap":"GAUGE_TYPE_A_BITMAP_SHADOW" }
    },
    "TEMPERATURES": {
        "GPU Core":{"x":478, "y":202, "width":17, "height":131, "realValueMin":0, "realValueMax":120, "value":0, "bitmap":"GAUGE_TYPE_B_BITMAP", "bitmapTop":"GAUGE_TYPE_B_BITMAP_TOP"},
        "GPU Memory":{"x":538, "y":202, "width":17, "height":131, "realValueMin":0, "realValueMax":120, "value":0, "bitmap":"GAUGE_TYPE_B_BITMAP", "bitmapTop":"GAUGE_TYPE_B_BITMAP_TOP"},
        "GPU Hot Spot":{"x":598, "y":202, "width":17, "height":131, "realValueMin":0, "realValueMax":120, "value":0, "bitmap":"GAUGE_TYPE_B_BITMAP", "bitmapTop":"GAUGE_TYPE_B_BITMAP_TOP"}
    }, 
    "LOADS": {
        "GPU Core": {"x":732, "y":96, "width":90, "height":90, "minGraph":0, "maxGraph":358, "realValMin":0, "realValMax":100, "value":0, "bitmap":"GAUGE_TYPE_C_BITMAP"},
        "GPU Memory": {"x":732, "y":189, "width":90, "height":90, "minGraph":0, "maxGraph":358, "realValMin":0, "realValMax":100, "value":0, "bitmap":"GAUGE_TYPE_C_BITMAP"},
        "Memory": {"x":694, "y":304, "width":90, "height":90, "minGraph":0, "maxGraph":358, "realValMin":0, "realValMax":100, "value":0, "bitmap":"GAUGE_TYPE_C_BITMAP"},
        "Virtual Memory": {"x":694, "y":399, "width":90, "height":90, "minGraph":0, "maxGraph":358, "realValMin":0, "realValMax":100, "value":0, "bitmap":"GAUGE_TYPE_C_BITMAP"}
    }, 
    "LOADS_SHADOW": {
        "GPU Core":{ "offsetX":1, "offsetY":2, "bitmap":"GAUGE_TYPE_C_BITMAP_SHADOW" },
        "GPU Memory":{ "offsetX":1, "offsetY":2, "bitmap":"GAUGE_TYPE_C_BITMAP_SHADOW" },
        "Memory":{ "offsetX":1, "offsetY":2, "bitmap":"GAUGE_TYPE_C_BITMAP_SHADOW" },
        "Virtual Memory":{ "offsetX":1, "offsetY":2, "bitmap":"GAUGE_TYPE_C_BITMAP_SHADOW" }
    },
    "GAUGE_TYPE_D": {
        "CPU Core #1": {"x":314, "y":322, "width":97, "height":11, "realValueMin":0, "realValueMax":100, "bitmap":"GAUGE_TYPE_D_BITMAP", "bitmapRight":"GAUGE_TYPE_D_BITMAP_RIGHT"},
        "CPU Core #2": {"x":314, "y":342, "width":97, "height":11, "realValueMin":0, "realValueMax":100, "bitmap":"GAUGE_TYPE_D_BITMAP", "bitmapRight":"GAUGE_TYPE_D_BITMAP_RIGHT"},
        "CPU Core #3": {"x":314, "y":362, "width":97, "height":11, "realValueMin":0, "realValueMax":100, "bitmap":"GAUGE_TYPE_D_BITMAP", "bitmapRight":"GAUGE_TYPE_D_BITMAP_RIGHT"},
        "CPU Core #4": {"x":314, "y":382, "width":97, "height":11, "realValueMin":0, "realValueMax":100, "bitmap":"GAUGE_TYPE_D_BITMAP", "bitmapRight":"GAUGE_TYPE_D_BITMAP_RIGHT"},
        "CPU Core #5": {"x":314, "y":402, "width":97, "height":11, "realValueMin":0, "realValueMax":100, "bitmap":"GAUGE_TYPE_D_BITMAP", "bitmapRight":"GAUGE_TYPE_D_BITMAP_RIGHT"},
        "CPU Core #6": {"x":314, "y":422, "width":97, "height":11, "realValueMin":0, "realValueMax":100, "bitmap":"GAUGE_TYPE_D_BITMAP", "bitmapRight":"GAUGE_TYPE_D_BITMAP_RIGHT"},
        "CPU Core #7": {"x":434, "y":322, "width":97, "height":11, "realValueMin":0, "realValueMax":100, "bitmap":"GAUGE_TYPE_D_BITMAP", "bitmapRight":"GAUGE_TYPE_D_BITMAP_RIGHT"},
        "CPU Core #8": {"x":434, "y":342, "width":97, "height":11, "realValueMin":0, "realValueMax":100, "bitmap":"GAUGE_TYPE_D_BITMAP", "bitmapRight":"GAUGE_TYPE_D_BITMAP_RIGHT"},
        "CPU Core #9": {"x":434, "y":362, "width":97, "height":11, "realValueMin":0, "realValueMax":100, "bitmap":"GAUGE_TYPE_D_BITMAP", "bitmapRight":"GAUGE_TYPE_D_BITMAP_RIGHT"},
        "CPU Core #10": {"x":434, "y":382, "width":97, "height":11, "realValueMin":0, "realValueMax":100, "bitmap":"GAUGE_TYPE_D_BITMAP", "bitmapRight":"GAUGE_TYPE_D_BITMAP_RIGHT"},
        "CPU Core #11": {"x":434, "y":402, "width":97, "height":11, "realValueMin":0, "realValueMax":100, "bitmap":"GAUGE_TYPE_D_BITMAP", "bitmapRight":"GAUGE_TYPE_D_BITMAP_RIGHT"},
        "CPU Core #12": {"x":434, "y":422, "width":97, "height":11, "realValueMin":0, "realValueMax":100, "bitmap":"GAUGE_TYPE_D_BITMAP", "bitmapRight":"GAUGE_TYPE_D_BITMAP_RIGHT"}
    },
    "Fullscreen FPS": {
        "bitmap":"FPS_BACKGROUND_BITMAP",
        "font": "fpsGlitchGoblin",
        "fontColor": "#ffff00ff",
        "textPrev": "FPS: ",
        "textnext": ""
    }
}